…
```

You can do this with `pivot_longer()`.


```{r}

df_long <- df_paired |> 
  pivot_longer(
    everything(), 
    names_to = c("group", ".value"), 
    names_sep = "_"
  )
df_long
#> # A tibble: 40 × 3
#>   group    val   wts
#>   <chr>  <dbl> <dbl>
#> 1 a     -1.40  0.290
#> 2 b     -1.86  0.461
#> 3 c      0.935 0.528
#> 4 d      2.76  0.709
#> 5 a      0.255 0.678
#> 6 b     -0.522 0.315
#> # ℹ 34 more rows
…
```

Now use `map()`.

```{r}

# files <- map(paths, readxl::read_excel)
# length(files)
# #> [1] 12
# 
# files[[1]]
#> # A tibble: 142 × 5
#>   country     continent lifeExp      pop gdpPercap
#>   <chr>       <chr>       <dbl>    <dbl>     <dbl>
#> 1 Afghanistan Asia         28.8  8425333      779.
#> 2 Albania     Europe       55.2  1282697     1601.
#> 3 Algeria     Africa       43.1  9279525     2449.
#> 4 Angola      Africa       30.0  4232095     3521.
#> 5 Argentina   Americas     62.5 17876956     5911.
#> 6 Australia   Oceania      69.1  8691212    10040.
#> # ℹ 136 more rows


```

Now combine elements of the list with `purrr::list_rbind()`.

```{r}

# list_rbind(files)
# #> # A tibble: 1,704 × 5
# #>   country     continent lifeExp      pop gdpPercap
# #>   <chr>       <chr>       <dbl>    <dbl>     <dbl>
# #> 1 Afghanistan Asia         28.8  8425333      779.
# #> 2 Albania     Europe       55.2  1282697     1601.
# #> 3 Algeria     Africa       43.1  9279525     2449.
# #> 4 Angola      Africa       30.0  4232095     3521.
# #> 5 Argentina   Americas     62.5 17876956     5911.
# #> 6 Australia   Oceania      69.1  8691212    10040.
# #> # ℹ 1,698 more rows
…
# paths |> 
#   map(readxl::read_excel) |> 
#   list_rbind()


```

Adding additional arguments to the function being applied to each element of the list can be accomplished with an anonymous function.

```{r}

# paths |> 
#   map(\(path) readxl::read_excel(path, n_max = 1)) |> 
#   list_rbind()
# #> # A tibble: 12 × 5
# #>   country     continent lifeExp      pop gdpPercap
# #>   <chr>       <chr>       <dbl>    <dbl>     <dbl>
# #> 1 Afghanistan Asia         28.8  8425333      779.
# #> 2 Afghanistan Asia         30.3  9240934      821.
# #> 3 Afghanistan Asia         32.0 10267083      853.
# #> 4 Afghanistan Asia         34.0 11537966      836.
# #> 5 Afghanistan Asia         36.1 13079460      740.
# #> 6 Afghanistan Asia         38.4 14880372      786.
# #> # ℹ 6 more rows
…
```



```{r}

# paths |> 
#   set_names(basename) |> 
#   map(readxl::read_excel) |> 
#   list_rbind(names_to = "year") |> 
#   mutate(year = parse_number(year))
# #> # A tibble: 1,704 × 6
# #>    year country     continent lifeExp      pop gdpPercap
# #>   <dbl> <chr>       <chr>       <dbl>    <dbl>     <dbl>
# #> 1  1952 Afghanistan Asia         28.8  8425333      779.
# #> 2  1952 Albania     Europe       55.2  1282697     1601.
# #> 3  1952 Algeria     Africa       43.1  9279525     2449.
# #> 4  1952 Angola      Africa       30.0  4232095     3521.
# #> 5  1952 Argentina   Americas     62.5 17876956     5911.
# #> 6  1952 Australia   Oceania      69.1  8691212    10040.
# #> # ℹ 1,698 more rows
…
In cases where there is more than one variable in the file name:


```{r}


# paths |> 
#   set_names() |> 
#   map(readxl::read_excel) |> 
#   list_rbind(names_to = "year") |> 
#   separate_wider_delim(year, delim = "/", names = c(NA, "dir", "file")) |> 
#   separate_wider_delim(file, delim = ".", names = c("file", "ext"))
# #> # A tibble: 1,704 × 8
# #>   dir       file  ext   country     continent lifeExp      pop gdpPercap
# #>   <chr>     <chr> <chr> <chr>       <chr>       <dbl>    <dbl>     <dbl>
# #> 1 gapminder 1952  xlsx  Afghanistan Asia         28.8  8425333      779.
# #> 2 gapminder 1952  xlsx  Albania     Europe       55.2  1282697     1601.
# #> 3 gapminder 1952  xlsx  Algeria     Africa       43.1  9279525     2449.
# #> 4 gapminder 1952  xlsx  Angola      Africa       30.0  4232095     3521.
# #> 5 gapminder 1952  xlsx  Argentina   Americas     62.5 17876956     5911.
# #> 6 gapminder 1952  xlsx  Australia   Oceania      69.1  8691212    10040.
# #> # ℹ 1,698 more rows
…
# con <- DBI::dbConnect(duckdb::duckdb())
# duckdb::duckdb_read_csv(con, "gapminder", paths)

```

We actually have `.xlsx` files, so we'll have to do this by hand. First, make a template.

```{r}

# template <- readxl::read_excel(paths[[1]])
# template$year <- 1952
# template
# #> # A tibble: 142 × 6
# #>   country     continent lifeExp      pop gdpPercap  year
# #>   <chr>       <chr>       <dbl>    <dbl>     <dbl> <dbl>
# #> 1 Afghanistan Asia         28.8  8425333      779.  1952
# #> 2 Albania     Europe       55.2  1282697     1601.  1952
# #> 3 Algeria     Africa       43.1  9279525     2449.  1952
# #> 4 Angola      Africa       30.0  4232095     3521.  1952
# #> 5 Argentina   Americas     62.5 17876956     5911.  1952
# #> 6 Australia   Oceania      69.1  8691212    10040.  1952
# #> # ℹ 136 more rows
…
```


**Writing csv files**. Here, they use `group_nest` to create a tibble per group.


```{r}

by_clarity <- diamonds |> 
  group_nest(clarity)

by_clarity
#> # A tibble: 8 × 2
#>   clarity               data
#>   <ord>   <list<tibble[,9]>>
#> 1 I1               [741 × 9]
#> 2 SI2            [9,194 × 9]
#> 3 SI1           [13,065 × 9]
#> 4 VS2           [12,258 × 9]
#> 5 VS1            [8,171 × 9]
#> 6 VVS2           [5,066 × 9]
#> # ℹ 2 more rows


```


```{r}

by_clarity$data[[1]]
#> # A tibble: 741 × 9
#>   carat cut       color depth table price     x     y     z
#>   <dbl> <ord>     <ord> <dbl> <dbl> <int> <dbl> <dbl> <dbl>
#> 1  0.32 Premium   E      60.9    58   345  4.38  4.42  2.68
#> 2  1.17 Very Good J      60.2    61  2774  6.83  6.9   4.13
#> 3  1.01 Premium   F      61.8    60  2781  6.39  6.36  3.94
#> 4  1.01 Fair      E      64.5    58  2788  6.29  6.21  4.03
#> 5  0.96 Ideal     F      60.7    55  2801  6.37  6.41  3.88
#> 6  1.04 Premium   G      62.2    58  2801  6.46  6.41  4   
#> # ℹ 735 more rows


```


Now add a column with the name of the output file.


```{r}

by_clarity <- by_clarity |> 
  mutate(path = str_glue("diamonds-{clarity}.csv"))

by_clarity
#> # A tibble: 8 × 3
#>   clarity               data path             
#>   <ord>   <list<tibble[,9]>> <glue>           
#> 1 I1               [741 × 9] diamonds-I1.csv  
#> 2 SI2            [9,194 × 9] diamonds-SI2.csv 
#> 3 SI1           [13,065 × 9] diamonds-SI1.csv 
#> 4 VS2           [12,258 × 9] diamonds-VS2.csv 
#> 5 VS1            [8,171 × 9] diamonds-VS1.csv 
#> 6 VVS2           [5,066 × 9] diamonds-VVS2.csv
#> # ℹ 2 more rows
…
