R for Data Science, 2nd Edition - Chapter 19 Notes – Edward’s Notes on R for Data Science, 2nd Edition
…
# A tibble: 0 × 4
# ℹ 4 variables: time_hour <dttm>, carrier <chr>, flight <int>, n <int>

#> # A tibble: 0 × 4
#> # ℹ 4 variables: time_hour <dttm>, carrier <chr>, flight <int>, n <int>

If you don’t have a clear primary key, you can use a surrogate:

flights2 <- flights |> 
  mutate(id = row_number(), .before = 1)
flights2

# A tibble: 336,776 × 20
      id  year month   day dep_time sched_dep_time dep_delay arr_time
   <int> <int> <int> <int>    <int>          <int>     <dbl>    <int>
 1     1  2013     1     1      517            515         2      830
 2     2  2013     1     1      533            529         4      850
 3     3  2013     1     1      542            540         2      923
 4     4  2013     1     1      544            545        -1     1004
 5     5  2013     1     1      554            600        -6      812
 6     6  2013     1     1      554            558        -4      740
 7     7  2013     1     1      555            600        -5      913
 8     8  2013     1     1      557            600        -3      709
 9     9  2013     1     1      557            600        -3      838
10    10  2013     1     1      558            600        -2      753
# ℹ 336,766 more rows
# ℹ 12 more variables: sched_arr_time <int>, arr_delay <dbl>, carrier <chr>,
#   flight <int>, tailnum <chr>, origin <chr>, dest <chr>, air_time <dbl>,
#   distance <dbl>, hour <dbl>, minute <dbl>, time_hour <dttm>

#> # A tibble: 336,776 × 20
#>      id  year month   day dep_time sched_dep_time dep_delay arr_time
#>   <int> <int> <int> <int>    <int>          <int>     <dbl>    <int>
#> 1     1  2013     1     1      517            515         2      830
#> 2     2  2013     1     1      533            529         4      850
#> 3     3  2013     1     1      542            540         2      923
#> 4     4  2013     1     1      544            545        -1     1004
#> 5     5  2013     1     1      554            600        -6      812
#> 6     6  2013     1     1      554            558        -4      740
#> # ℹ 336,770 more rows
#> # ℹ 12 more variables: sched_arr_time <int>, arr_delay <dbl>, …

Mutating joins.

Make a more narrow data frame first.

flights2 <- flights |> 
  select(year, time_hour, origin, dest, tailnum, carrier)
flights2

# A tibble: 336,776 × 6
    year time_hour           origin dest  tailnum carrier
   <int> <dttm>              <chr>  <chr> <chr>   <chr>  
 1  2013 2013-01-01 05:00:00 EWR    IAH   N14228  UA     
 2  2013 2013-01-01 05:00:00 LGA    IAH   N24211  UA     
 3  2013 2013-01-01 05:00:00 JFK    MIA   N619AA  AA     
 4  2013 2013-01-01 05:00:00 JFK    BQN   N804JB  B6     
 5  2013 2013-01-01 06:00:00 LGA    ATL   N668DN  DL     
 6  2013 2013-01-01 05:00:00 EWR    ORD   N39463  UA     
 7  2013 2013-01-01 06:00:00 EWR    FLL   N516JB  B6     
 8  2013 2013-01-01 06:00:00 LGA    IAD   N829AS  EV     
 9  2013 2013-01-01 06:00:00 JFK    MCO   N593JB  B6     
10  2013 2013-01-01 06:00:00 LGA    ORD   N3ALAA  AA     
# ℹ 336,766 more rows

#> # A tibble: 336,776 × 6
#>    year time_hour           origin dest  tailnum carrier
#>   <int> <dttm>              <chr>  <chr> <chr>   <chr>  
#> 1  2013 2013-01-01 05:00:00 EWR    IAH   N14228  UA     
#> 2  2013 2013-01-01 05:00:00 LGA    IAH   N24211  UA     
#> 3  2013 2013-01-01 05:00:00 JFK    MIA   N619AA  AA     
#> 4  2013 2013-01-01 05:00:00 JFK    BQN   N804JB  B6     
#> 5  2013 2013-01-01 06:00:00 LGA    ATL   N668DN  DL     
#> 6  2013 2013-01-01 05:00:00 EWR    ORD   N39463  UA     
#> # ℹ 336,770 more rows

add airline information to flights

flights2 |>
  left_join(airlines)

Joining with `by = join_by(carrier)`

# A tibble: 336,776 × 7
    year time_hour           origin dest  tailnum carrier name                  
   <int> <dttm>              <chr>  <chr> <chr>   <chr>   <chr>                 
 1  2013 2013-01-01 05:00:00 EWR    IAH   N14228  UA      United Air Lines Inc. 
 2  2013 2013-01-01 05:00:00 LGA    IAH   N24211  UA      United Air Lines Inc. 
 3  2013 2013-01-01 05:00:00 JFK    MIA   N619AA  AA      American Airlines Inc.
 4  2013 2013-01-01 05:00:00 JFK    BQN   N804JB  B6      JetBlue Airways       
 5  2013 2013-01-01 06:00:00 LGA    ATL   N668DN  DL      Delta Air Lines Inc.  
 6  2013 2013-01-01 05:00:00 EWR    ORD   N39463  UA      United Air Lines Inc. 
 7  2013 2013-01-01 06:00:00 EWR    FLL   N516JB  B6      JetBlue Airways       
 8  2013 2013-01-01 06:00:00 LGA    IAD   N829AS  EV      ExpressJet Airlines I…
 9  2013 2013-01-01 06:00:00 JFK    MCO   N593JB  B6      JetBlue Airways       
10  2013 2013-01-01 06:00:00 LGA    ORD   N3ALAA  AA      American Airlines Inc.
# ℹ 336,766 more rows

#> Joining with `by = join_by(carrier)`
#> # A tibble: 336,776 × 7
#>    year time_hour           origin dest  tailnum carrier name                
#>   <int> <dttm>              <chr>  <chr> <chr>   <chr>   <chr>               
#> 1  2013 2013-01-01 05:00:00 EWR    IAH   N14228  UA      United Air Lines In…
#> 2  2013 2013-01-01 05:00:00 LGA    IAH   N24211  UA      United Air Lines In…
#> 3  2013 2013-01-01 05:00:00 JFK    MIA   N619AA  AA      American Airlines I…
#> 4  2013 2013-01-01 05:00:00 JFK    BQN   N804JB  B6      JetBlue Airways     
#> 5  2013 2013-01-01 06:00:00 LGA    ATL   N668DN  DL      Delta Air Lines Inc.
#> 6  2013 2013-01-01 05:00:00 EWR    ORD   N39463  UA      United Air Lines In…
#> # ℹ 336,770 more rows

Find weather when each flight departed. Note the use of select within left_join():

flights2 |> 
  left_join(weather |> select(origin, time_hour, temp, wind_speed))

Joining with `by = join_by(time_hour, origin)`

# A tibble: 336,776 × 8
    year time_hour           origin dest  tailnum carrier  temp wind_speed
   <int> <dttm>              <chr>  <chr> <chr>   <chr>   <dbl>      <dbl>
 1  2013 2013-01-01 05:00:00 EWR    IAH   N14228  UA       39.0       12.7
 2  2013 2013-01-01 05:00:00 LGA    IAH   N24211  UA       39.9       15.0
 3  2013 2013-01-01 05:00:00 JFK    MIA   N619AA  AA       39.0       15.0
 4  2013 2013-01-01 05:00:00 JFK    BQN   N804JB  B6       39.0       15.0
 5  2013 2013-01-01 06:00:00 LGA    ATL   N668DN  DL       39.9       16.1
 6  2013 2013-01-01 05:00:00 EWR    ORD   N39463  UA       39.0       12.7
 7  2013 2013-01-01 06:00:00 EWR    FLL   N516JB  B6       37.9       11.5
 8  2013 2013-01-01 06:00:00 LGA    IAD   N829AS  EV       39.9       16.1
 9  2013 2013-01-01 06:00:00 JFK    MCO   N593JB  B6       37.9       13.8
10  2013 2013-01-01 06:00:00 LGA    ORD   N3ALAA  AA       39.9       16.1
# ℹ 336,766 more rows

#> Joining with `by = join_by(time_hour, origin)`
#> # A tibble: 336,776 × 8
#>    year time_hour           origin dest  tailnum carrier  temp wind_speed
#>   <int> <dttm>              <chr>  <chr> <chr>   <chr>   <dbl>      <dbl>
#> 1  2013 2013-01-01 05:00:00 EWR    IAH   N14228  UA       39.0       12.7
#> 2  2013 2013-01-01 05:00:00 LGA    IAH   N24211  UA       39.9       15.0
#> 3  2013 2013-01-01 05:00:00 JFK    MIA   N619AA  AA       39.0       15.0
#> 4  2013 2013-01-01 05:00:00 JFK    BQN   N804JB  B6       39.0       15.0
#> 5  2013 2013-01-01 06:00:00 LGA    ATL   N668DN  DL       39.9       16.1
#> 6  2013 2013-01-01 05:00:00 EWR    ORD   N39463  UA       39.0       12.7
#> # ℹ 336,770 more rows

When no match is found for a row in x, the new variables get NA in the new columns.

flights2 |> 
  filter(tailnum == "N3ALAA") |> 
  left_join(planes |> select(tailnum, type, engines, seats))

Joining with `by = join_by(tailnum)`

# A tibble: 63 × 9
    year time_hour           origin dest  tailnum carrier type  engines seats
   <int> <dttm>              <chr>  <chr> <chr>   <chr>   <chr>   <int> <int>
 1  2013 2013-01-01 06:00:00 LGA    ORD   N3ALAA  AA      <NA>       NA    NA
 2  2013 2013-01-02 18:00:00 LGA    ORD   N3ALAA  AA      <NA>       NA    NA
 3  2013 2013-01-03 06:00:00 LGA    ORD   N3ALAA  AA      <NA>       NA    NA
 4  2013 2013-01-07 19:00:00 LGA    ORD   N3ALAA  AA      <NA>       NA    NA
 5  2013 2013-01-08 17:00:00 JFK    ORD   N3ALAA  AA      <NA>       NA    NA
 6  2013 2013-01-16 06:00:00 LGA    ORD   N3ALAA  AA      <NA>       NA    NA
 7  2013 2013-01-20 18:00:00 LGA    ORD   N3ALAA  AA      <NA>       NA    NA
 8  2013 2013-01-22 17:00:00 JFK    ORD   N3ALAA  AA      <NA>       NA    NA
 9  2013 2013-10-11 06:00:00 EWR    MIA   N3ALAA  AA      <NA>       NA    NA
10  2013 2013-10-14 08:00:00 JFK    BOS   N3ALAA  AA      <NA>       NA    NA
# ℹ 53 more rows

#> Joining with `by = join_by(tailnum)`
#> # A tibble: 63 × 9
#>    year time_hour           origin dest  tailnum carrier type  engines seats
#>   <int> <dttm>              <chr>  <chr> <chr>   <chr>   <chr>   <int> <int>
#> 1  2013 2013-01-01 06:00:00 LGA    ORD   N3ALAA  AA      <NA>       NA    NA
#> 2  2013 2013-01-02 18:00:00 LGA    ORD   N3ALAA  AA      <NA>       NA    NA
#> 3  2013 2013-01-03 06:00:00 LGA    ORD   N3ALAA  AA      <NA>       NA    NA
#> 4  2013 2013-01-07 19:00:00 LGA    ORD   N3ALAA  AA      <NA>       NA    NA
#> 5  2013 2013-01-08 17:00:00 JFK    ORD   N3ALAA  AA      <NA>       NA    NA
#> 6  2013 2013-01-16 06:00:00 LGA    ORD   N3ALAA  AA      <NA>       NA    NA
#> # ℹ 57 more rows

By default, left_join() uses all columns that appear in both data frames as the join key. But you can and should specify the joining keys:

flights2 |> 
  left_join(planes, join_by(tailnum))

# A tibble: 336,776 × 14
   year.x time_hour           origin dest  tailnum carrier year.y type          
    <int> <dttm>              <chr>  <chr> <chr>   <chr>    <int> <chr>         
 1   2013 2013-01-01 05:00:00 EWR    IAH   N14228  UA        1999 Fixed wing mu…
 2   2013 2013-01-01 05:00:00 LGA    IAH   N24211  UA        1998 Fixed wing mu…
 3   2013 2013-01-01 05:00:00 JFK    MIA   N619AA  AA        1990 Fixed wing mu…
 4   2013 2013-01-01 05:00:00 JFK    BQN   N804JB  B6        2012 Fixed wing mu…
 5   2013 2013-01-01 06:00:00 LGA    ATL   N668DN  DL        1991 Fixed wing mu…
 6   2013 2013-01-01 05:00:00 EWR    ORD   N39463  UA        2012 Fixed wing mu…
 7   2013 2013-01-01 06:00:00 EWR    FLL   N516JB  B6        2000 Fixed wing mu…
 8   2013 2013-01-01 06:00:00 LGA    IAD   N829AS  EV        1998 Fixed wing mu…
 9   2013 2013-01-01 06:00:00 JFK    MCO   N593JB  B6        2004 Fixed wing mu…
10   2013 2013-01-01 06:00:00 LGA    ORD   N3ALAA  AA          NA <NA>          
# ℹ 336,766 more rows
# ℹ 6 more variables: manufacturer <chr>, model <chr>, engines <int>,
#   seats <int>, speed <int>, engine <chr>

#> # A tibble: 336,776 × 14
#>   year.x time_hour           origin dest  tailnum carrier year.y
#>    <int> <dttm>              <chr>  <chr> <chr>   <chr>    <int>
#> 1   2013 2013-01-01 05:00:00 EWR    IAH   N14228  UA        1999
#> 2   2013 2013-01-01 05:00:00 LGA    IAH   N24211  UA        1998
#> 3   2013 2013-01-01 05:00:00 JFK    MIA   N619AA  AA        1990
#> 4   2013 2013-01-01 05:00:00 JFK    BQN   N804JB  B6        2012
#> 5   2013 2013-01-01 06:00:00 LGA    ATL   N668DN  DL        1991
#> 6   2013 2013-01-01 05:00:00 EWR    ORD   N39463  UA        2012
#> # ℹ 336,770 more rows
#> # ℹ 7 more variables: type <chr>, manufacturer <chr>, model <chr>, …

This is short for join_by(tailnum == tailnum). That’s fine is the same variables have the same names across data frames. If the names are different, then you need to specify the equality of variables across different columns names in the join_by() argument.

flights2 |> 
  left_join(airports, join_by(dest == faa))

# A tibble: 336,776 × 13
    year time_hour           origin dest  tailnum carrier name         lat   lon
   <int> <dttm>              <chr>  <chr> <chr>   <chr>   <chr>      <dbl> <dbl>
 1  2013 2013-01-01 05:00:00 EWR    IAH   N14228  UA      George Bu…  30.0 -95.3
 2  2013 2013-01-01 05:00:00 LGA    IAH   N24211  UA      George Bu…  30.0 -95.3
 3  2013 2013-01-01 05:00:00 JFK    MIA   N619AA  AA      Miami Intl  25.8 -80.3
 4  2013 2013-01-01 05:00:00 JFK    BQN   N804JB  B6      <NA>        NA    NA  
 5  2013 2013-01-01 06:00:00 LGA    ATL   N668DN  DL      Hartsfiel…  33.6 -84.4
 6  2013 2013-01-01 05:00:00 EWR    ORD   N39463  UA      Chicago O…  42.0 -87.9
 7  2013 2013-01-01 06:00:00 EWR    FLL   N516JB  B6      Fort Laud…  26.1 -80.2
 8  2013 2013-01-01 06:00:00 LGA    IAD   N829AS  EV      Washingto…  38.9 -77.5
 9  2013 2013-01-01 06:00:00 JFK    MCO   N593JB  B6      Orlando I…  28.4 -81.3
10  2013 2013-01-01 06:00:00 LGA    ORD   N3ALAA  AA      Chicago O…  42.0 -87.9
# ℹ 336,766 more rows
# ℹ 4 more variables: alt <dbl>, tz <dbl>, dst <chr>, tzone <chr>

#> # A tibble: 336,776 × 13
#>    year time_hour           origin dest  tailnum carrier name                
#>   <int> <dttm>              <chr>  <chr> <chr>   <chr>   <chr>               
#> 1  2013 2013-01-01 05:00:00 EWR    IAH   N14228  UA      George Bush Interco…
#> 2  2013 2013-01-01 05:00:00 LGA    IAH   N24211  UA      George Bush Interco…
#> 3  2013 2013-01-01 05:00:00 JFK    MIA   N619AA  AA      Miami Intl          
#> 4  2013 2013-01-01 05:00:00 JFK    BQN   N804JB  B6      <NA>                
#> 5  2013 2013-01-01 06:00:00 LGA    ATL   N668DN  DL      Hartsfield Jackson …
#> 6  2013 2013-01-01 05:00:00 EWR    ORD   N39463  UA      Chicago Ohare Intl  
#> # ℹ 336,770 more rows
#> # ℹ 6 more variables: lat <dbl>, lon <dbl>, alt <dbl>, tz <dbl>, …

flights2 |> 
  left_join(airports, join_by(origin == faa))

# A tibble: 336,776 × 13
    year time_hour           origin dest  tailnum carrier name         lat   lon
   <int> <dttm>              <chr>  <chr> <chr>   <chr>   <chr>      <dbl> <dbl>
 1  2013 2013-01-01 05:00:00 EWR    IAH   N14228  UA      Newark Li…  40.7 -74.2
 2  2013 2013-01-01 05:00:00 LGA    IAH   N24211  UA      La Guardia  40.8 -73.9
 3  2013 2013-01-01 05:00:00 JFK    MIA   N619AA  AA      John F Ke…  40.6 -73.8
 4  2013 2013-01-01 05:00:00 JFK    BQN   N804JB  B6      John F Ke…  40.6 -73.8
 5  2013 2013-01-01 06:00:00 LGA    ATL   N668DN  DL      La Guardia  40.8 -73.9
 6  2013 2013-01-01 05:00:00 EWR    ORD   N39463  UA      Newark Li…  40.7 -74.2
 7  2013 2013-01-01 06:00:00 EWR    FLL   N516JB  B6      Newark Li…  40.7 -74.2
 8  2013 2013-01-01 06:00:00 LGA    IAD   N829AS  EV      La Guardia  40.8 -73.9
 9  2013 2013-01-01 06:00:00 JFK    MCO   N593JB  B6      John F Ke…  40.6 -73.8
10  2013 2013-01-01 06:00:00 LGA    ORD   N3ALAA  AA      La Guardia  40.8 -73.9
# ℹ 336,766 more rows
# ℹ 4 more variables: alt <dbl>, tz <dbl>, dst <chr>, tzone <chr>

#> # A tibble: 336,776 × 13
#>    year time_hour           origin dest  tailnum carrier name               
#>   <int> <dttm>              <chr>  <chr> <chr>   <chr>   <chr>              
#> 1  2013 2013-01-01 05:00:00 EWR    IAH   N14228  UA      Newark Liberty Intl
#> 2  2013 2013-01-01 05:00:00 LGA    IAH   N24211  UA      La Guardia         
#> 3  2013 2013-01-01 05:00:00 JFK    MIA   N619AA  AA      John F Kennedy Intl
#> 4  2013 2013-01-01 05:00:00 JFK    BQN   N804JB  B6      John F Kennedy Intl
#> 5  2013 2013-01-01 06:00:00 LGA    ATL   N668DN  DL      La Guardia         
#> 6  2013 2013-01-01 05:00:00 EWR    ORD   N39463  UA      Newark Liberty Intl
#> # ℹ 336,770 more rows
#> # ℹ 6 more variables: lat <dbl>, lon <dbl>, alt <dbl>, tz <dbl>, …
…
#> # A tibble: 4 × 1
#>   dest 
#>   <chr>
#> 1 BQN  
#> 2 SJU  
#> 3 STT  
#> 4 PSE

Find which tailnum() are missing from planes:

flights2 |>
  anti_join(planes, join_by(tailnum)) |> 
  distinct(tailnum)

# A tibble: 722 × 1
   tailnum
   <chr>  
 1 N3ALAA 
 2 N3DUAA 
 3 N542MQ 
 4 N730MQ 
 5 N9EAMQ 
 6 N532UA 
 7 N3EMAA 
 8 N518MQ 
 9 N3BAAA 
10 N3CYAA 
# ℹ 712 more rows

#> # A tibble: 722 × 1
#>   tailnum
#>   <chr>  
#> 1 N3ALAA 
#> 2 N3DUAA 
#> 3 N542MQ 
#> 4 N730MQ 
#> 5 N9EAMQ 
#> 6 N532UA 
#> # ℹ 716 more rows
…
 4 John   Max   
 5 Simon  John  
 6 Simon  Simon 
 7 Simon  Tracy 
 8 Simon  Max   
 9 Tracy  John  
10 Tracy  Simon 
11 Tracy  Tracy 
12 Tracy  Max   
13 Max    John  
14 Max    Simon 
15 Max    Tracy 
16 Max    Max   

#> # A tibble: 16 × 2
#>   name.x name.y
#>   <chr>  <chr> 
#> 1 John   John  
#> 2 John   Simon 
#> 3 John   Tracy 
#> 4 John   Max   
#> 5 Simon  John  
#> 6 Simon  Simon 
#> # ℹ 10 more rows
…
Quarterly party planning for employee birthdays:

parties <- tibble(
  q = 1:4,
  party = ymd(c("2022-01-10", "2022-04-04", "2022-07-11", "2022-10-03"))
)

set.seed(123)
employees <- tibble(
  name = sample(babynames::babynames$name, 100),
  birthday = ymd("2022-01-01") + (sample(365, 100, replace = TRUE) - 1)
)
employees

# A tibble: 100 × 2
   name     birthday  
   <chr>    <date>    
 1 Kemba    2022-01-22
 2 Orean    2022-06-26
 3 Kirstyn  2022-02-11
 4 Amparo   2022-11-11
 5 Belen    2022-03-25
 6 Rayshaun 2022-01-11
 7 Brazil   2022-05-01
 8 Chaston  2022-10-29
 9 Reyn     2022-03-26
10 Ogechi   2022-12-31
# ℹ 90 more rows

#> # A tibble: 100 × 2
#>   name     birthday  
#>   <chr>    <date>    
#> 1 Kemba    2022-01-22
#> 2 Orean    2022-06-26
#> 3 Kirstyn  2022-02-11
#> 4 Amparo   2022-11-11
#> 5 Belen    2022-03-25
#> 6 Rayshaun 2022-01-11
#> # ℹ 94 more rows

For each employee we want to find the last party date that comes before (or on) their birthday. We can express that with a rolling join. The closest() function takes this from an inequality join to a rolling join:

employees |> 
  left_join(parties, join_by(closest(birthday >= party)))

# A tibble: 100 × 4
   name     birthday       q party     
   <chr>    <date>     <int> <date>    
 1 Kemba    2022-01-22     1 2022-01-10
 2 Orean    2022-06-26     2 2022-04-04
 3 Kirstyn  2022-02-11     1 2022-01-10
 4 Amparo   2022-11-11     4 2022-10-03
 5 Belen    2022-03-25     1 2022-01-10
 6 Rayshaun 2022-01-11     1 2022-01-10
 7 Brazil   2022-05-01     2 2022-04-04
 8 Chaston  2022-10-29     4 2022-10-03
 9 Reyn     2022-03-26     1 2022-01-10
10 Ogechi   2022-12-31     4 2022-10-03
# ℹ 90 more rows

#> # A tibble: 100 × 4
#>   name     birthday       q party     
#>   <chr>    <date>     <int> <date>    
#> 1 Kemba    2022-01-22     1 2022-01-10
#> 2 Orean    2022-06-26     2 2022-04-04
#> 3 Kirstyn  2022-02-11     1 2022-01-10
#> 4 Amparo   2022-11-11     4 2022-10-03
#> 5 Belen    2022-03-25     1 2022-01-10
#> 6 Rayshaun 2022-01-11     1 2022-01-10
#> # ℹ 94 more rows
…
There is an overlap. Fix:

parties <- tibble(
  q = 1:4,
  party = ymd(c("2022-01-10", "2022-04-04", "2022-07-11", "2022-10-03")),
  start = ymd(c("2022-01-01", "2022-04-04", "2022-07-11", "2022-10-03")),
  end = ymd(c("2022-04-03", "2022-07-10", "2022-10-02", "2022-12-31"))
)

Now assign a party

employees |> 
  inner_join(parties, join_by(between(birthday, start, end)), unmatched = "error")

# A tibble: 100 × 6
   name     birthday       q party      start      end       
   <chr>    <date>     <int> <date>     <date>     <date>    
 1 Kemba    2022-01-22     1 2022-01-10 2022-01-01 2022-04-03
 2 Orean    2022-06-26     2 2022-04-04 2022-04-04 2022-07-10
 3 Kirstyn  2022-02-11     1 2022-01-10 2022-01-01 2022-04-03
 4 Amparo   2022-11-11     4 2022-10-03 2022-10-03 2022-12-31
 5 Belen    2022-03-25     1 2022-01-10 2022-01-01 2022-04-03
 6 Rayshaun 2022-01-11     1 2022-01-10 2022-01-01 2022-04-03
 7 Brazil   2022-05-01     2 2022-04-04 2022-04-04 2022-07-10
 8 Chaston  2022-10-29     4 2022-10-03 2022-10-03 2022-12-31
 9 Reyn     2022-03-26     1 2022-01-10 2022-01-01 2022-04-03
10 Ogechi   2022-12-31     4 2022-10-03 2022-10-03 2022-12-31
# ℹ 90 more rows
…
