R for Data Science, 2nd Edition - Chapter 25 Notes – Edward’s Notes on R for Data Science, 2nd Edition
…
diamonds |> count_prop(clarity)

# A tibble: 8 × 3
  clarity     n   prop
  <ord>   <int>  <dbl>
1 I1        741 0.0137
2 SI2      9194 0.170 
3 SI1     13065 0.242 
4 VS2     12258 0.227 
5 VS1      8171 0.151 
6 VVS2     5066 0.0939
7 VVS1     3655 0.0678
8 IF       1790 0.0332

#> # A tibble: 8 × 3
#>   clarity     n   prop
#>   <ord>   <int>  <dbl>
#> 1 I1        741 0.0137
#> 2 SI2      9194 0.170 
#> 3 SI1     13065 0.242 
#> 4 VS2     12258 0.227 
#> 5 VS1      8171 0.151 
#> 6 VVS2     5066 0.0939
#> # ℹ 2 more rows

Finding sorted unique values of a subset of the data:

unique_where <- function(df, condition, var) {
  df |> 
    filter({{ condition }}) |> 
    distinct({{ var }}) |> 
    arrange({{ var }})
}

# Find all the destinations in December
flights |> unique_where(month == 12, dest)

# A tibble: 96 × 1
   dest 
   <chr>
 1 ABQ  
 2 ALB  
 3 ATL  
 4 AUS  
 5 AVL  
 6 BDL  
 7 BGR  
 8 BHM  
 9 BNA  
10 BOS  
# ℹ 86 more rows

#> # A tibble: 96 × 1
#>   dest 
#>   <chr>
#> 1 ABQ  
#> 2 ALB  
#> 3 ATL  
#> 4 AUS  
#> 5 AVL  
#> 6 BDL  
#> # ℹ 90 more rows
…
