R for Data Science, 2nd Edition - Chapter 18 Notes – Edward’s Notes on R for Data Science, 2nd Edition
…
# A tibble: 8 × 3
   year   qtr price
  <dbl> <dbl> <dbl>
1  2020     1  1.88
2  2020     2  0.59
3  2020     3  0.35
4  2020     4 NA   
5  2021     1 NA   
6  2021     2  0.92
7  2021     3  0.17
8  2021     4  2.66

#> # A tibble: 8 × 3
#>    year   qtr price
#>   <dbl> <dbl> <dbl>
#> 1  2020     1  1.88
#> 2  2020     2  0.59
#> 3  2020     3  0.35
#> 4  2020     4 NA   
#> 5  2021     1 NA   
#> 6  2021     2  0.92
#> # ℹ 2 more rows
…
   <dbl> <dbl> <dbl>
 1  2019     1 NA   
 2  2019     2 NA   
 3  2019     3 NA   
 4  2019     4 NA   
 5  2020     1  1.88
 6  2020     2  0.59
 7  2020     3  0.35
 8  2020     4 NA   
 9  2021     1 NA   
10  2021     2  0.92
11  2021     3  0.17
12  2021     4  2.66

#> # A tibble: 12 × 3
#>    year   qtr price
#>   <dbl> <dbl> <dbl>
#> 1  2019     1 NA   
#> 2  2019     2 NA   
#> 3  2019     3 NA   
#> 4  2019     4 NA   
#> 5  2020     1  1.88
#> 6  2020     2  0.59
#> # ℹ 6 more rows
…
flights |> 
  distinct(tailnum) |> 
  anti_join(planes)

Joining with `by = join_by(tailnum)`

# A tibble: 722 × 1
   tailnum
   <chr>  
 1 N3ALAA 
 2 N3DUAA 
 3 N542MQ 
 4 N730MQ 
 5 N9EAMQ 
 6 N532UA 
 7 N3EMAA 
 8 N518MQ 
 9 N3BAAA 
10 N3CYAA 
# ℹ 712 more rows

#> Joining with `by = join_by(tailnum)`
#> # A tibble: 722 × 1
#>   tailnum
#>   <chr>  
#> 1 N3ALAA 
#> 2 N3DUAA 
#> 3 N542MQ 
#> 4 N730MQ 
#> 5 N9EAMQ 
#> 6 N532UA 
#> # ℹ 716 more rows
…
